…
res.EV$base # Data Description
#> [1] "[TrainingResult]"
names(res.EV$Lap) # 要約されたLapデータ
#>  [1] "LapNo"                "EndPoint"             "LapTime"             
#>  [4] "LapDistance"          "LapCalorie"           "LapPaceAve"          
#>  [7] "LapSpeedAve"          "LapPitchAve"          "LapStrideAve"        
#> [10] "LapKind"              "LapSteps"             "LapSplitTime"        
#> [13] "LapSplitDistance"     "LapAscentAltitude"    "LapDescentAltitude"  
#> [16] "LapMaxHeartRate"      "LapMinHeartRate"      "LapAverageHeartRate" 
#> [19] "LapHrzoneStayTime"    "LapHrzoneArrivalTime" "LapHrzoneUpperLimit" 
#> [22] "LapHrzoneLowerLimit"  "LapTimeCentisecond"   "Tag"
nrow(res.EV$Lap)
#> [1] 22
res.EV$Lap
#> # A tibble: 22 x 24
#>    LapNo EndPoint LapTime LapDistance LapCalorie LapPaceAve LapSpeedAve
#>    <int>    <int>   <int>       <int>      <int>      <int>       <int>
#>  1     1       27     353        1000         37        353       10198
#>  2     2       56     333        1000         41        333       10810
#>  3     3       79     333        1000         46        333       10810
#>  4     4      109     338        1000         46        338       10650
#>  5     5      151     330        1000         47        330       10909
#>  6     6      175     324        1000         48        324       11111
#>  7     7      205     331        1000         49        331       10876
#>  8     8      230     332        1000         47        332       10843
#>  9     9      274     343        1000         51        343       10495
#> 10    10      314     335        1000         47        335       10746
#> # … with 12 more rows, and 17 more variables: LapPitchAve <int>,
#> #   LapStrideAve <int>, LapKind <int>, LapSteps <int>, LapSplitTime <int>,
#> #   LapSplitDistance <int>, LapAscentAltitude <int>, LapDescentAltitude <int>,
#> #   LapMaxHeartRate <int>, LapMinHeartRate <int>, LapAverageHeartRate <int>,
#> #   LapHrzoneStayTime <int>, LapHrzoneArrivalTime <int>,
#> #   LapHrzoneUpperLimit <int>, LapHrzoneLowerLimit <int>,
#> #   LapTimeCentisecond <int>, Tag <chr>
```
…
